{
  "artifactGenerations" : [ ],
  "artifactId" : "legend-query",
  "groupId" : "org.finos.legend.demo",
  "metamodelDependencies" : [ ],
  "projectDependencies" : [ ],
  "projectId" : "42905743",
  "projectStructureVersion" : {
    "extensionVersion" : 2,
    "version" : 12
  }
}